The Undead
InfantryUnit,Swordsman,10
RangedUnit,Archer,15
CavalryUnit,Knight,20
CommanderUnit,Commander,30
InfantryUnit,Swordsman,10
RangedUnit,Archer,15
CavalryUnit,Knight,20
CommanderUnit,Commander,30
InfantryUnit,Swordsman,10
RangedUnit,Archer,15
CavalryUnit,Knight,20
CommanderUnit,Commander,30
InfantryUnit,Swordsman,10
RangedUnit,Archer,15
CavalryUnit,Knight,20
CommanderUnit,Commander,30
InfantryUnit,Swordsman,10
RangedUnit,Archer,15
CavalryUnit,Knight,20
CommanderUnit,Commander,30
InfantryUnit,Swordsman,10
RangedUnit,Archer,15
CavalryUnit,Knight,20
CommanderUnit,Commander,30
InfantryUnit,Swordsman,10
RangedUnit,Archer,15
CavalryUnit,Knight,20
CommanderUnit,Commander,30
InfantryUnit,Swordsman,10
RangedUnit,Archer,15
CavalryUnit,Knight,20
CommanderUnit,Commander,30
InfantryUnit,Swordsman,10
RangedUnit,Archer,15
CavalryUnit,Knight,20
CommanderUnit,Commander,30
InfantryUnit,Swordsman,10
RangedUnit,Archer,15
CavalryUnit,Knight,20
CommanderUnit,Commander,30
InfantryUnit,Swordsman,10
RangedUnit,Archer,15
CavalryUnit,Knight,20
CommanderUnit,Commander,30
InfantryUnit,Swordsman,10
RangedUnit,Archer,15
CavalryUnit,Knight,20
CommanderUnit,Commander,30
InfantryUnit,Swordsman,10
RangedUnit,Archer,15
CavalryUnit,Knight,20
CommanderUnit,Commander,30
InfantryUnit,Swordsman,10
RangedUnit,Archer,15
CavalryUnit,Knight,20
CommanderUnit,Commander,30
InfantryUnit,Swordsman,10
RangedUnit,Archer,15
CavalryUnit,Knight,20
CommanderUnit,Commander,30
InfantryUnit,Swordsman,10
RangedUnit,Archer,15
CavalryUnit,Knight,20
CommanderUnit,Commander,30
InfantryUnit,Swordsman,10
RangedUnit,Archer,15
CavalryUnit,Knight,20
CommanderUnit,Commander,30
InfantryUnit,Swordsman,10
RangedUnit,Archer,15
CavalryUnit,Knight,20
CommanderUnit,Commander,30
InfantryUnit,Swordsman,10
RangedUnit,Archer,15
CavalryUnit,Knight,20
CommanderUnit,Commander,30
InfantryUnit,Swordsman,10
RangedUnit,Archer,15
CavalryUnit,Knight,20
CommanderUnit,Commander,30
InfantryUnit,Swordsman,10
RangedUnit,Archer,15
CavalryUnit,Knight,20
CommanderUnit,Commander,30
